01. UPDATED OR DELETED
02. UPDATED OR DELETED
03. Teste
04. cuco
05. Teste
06. UPDATED OR DELETED
07. UPDATED OR DELETED
08. UPDATED OR DELETED
09. Teste
10. UPDATED OR DELETED
11. Teste Update
12. Teste Update 8
13. teste
14. phablo
